SELECT concat('INSERT INTO [dbo].[INSCRIPCION_X_ALUMNO]
           ([alumnoID]
           ,[materiaID]
           ,[estaMateriaID]
           ,[grupoID]
           ,[fechaAdicion]
           ,[adicionadoPor])
     VALUES','(', a.alumnoID,',',m.materiaID,',',2,',',1,',','SYSDATETIME()',',','sys);') FROM MATERIAS m 
inner join CARRERAS c on c.carreraID=m.carreraID
inner join ALUMNO a on a.carreraID=c.carreraID
where m.carreraID=6 and materiaID  in(11)

select CONCAT('INSERT INTO [dbo].[NOTAS]
           ([idMateria]
           ,[notaUno]
           ,[notaDos]
           ,[notaTres]
           ,[notaCuatro]
           ,[notaCinco]
           ,[notaSeis]
           ,[notaSiete]
           ,[notaOcho]
           ,[notaNueve]
           ,[fechaAdicion]
           ,[adicionadoPor]
           ,[alumnoID])
     VALUES (',i.materiaID,',',8.5,',',8.5,',',8.5,',',8.5,',',8.5,',',8.5,',',8.5,',',8.5,',',8.5,',',',',8.5,',','SYSDATETIME()',',','''sys''',',',a.alumnoID,');') from INSCRIPCION_X_ALUMNO i
inner join ALUMNO a on a.alumnoID=i.alumnoID 